module gitlab.com/royhananwar/dependency_forex

go 1.15

require (
	github.com/gin-gonic/gin v1.7.7
	github.com/go-playground/validator/v10 v10.11.0 // indirect
	github.com/golang/protobuf v1.5.2 // indirect
	github.com/json-iterator/go v1.1.12 // indirect
	github.com/mattn/go-isatty v0.0.14 // indirect
	github.com/modern-go/concurrent v0.0.0-20180306012644-bacd9c7ef1dd // indirect
	github.com/ugorji/go v1.2.7 // indirect
	golang.org/x/crypto v0.0.0-20220518034528-6f7dac969898 // indirect
	golang.org/x/sys v0.0.0-20220517195934-5e4e11fc645e // indirect
	google.golang.org/protobuf v1.28.0 // indirect
	gopkg.in/yaml.v2 v2.4.0 // indirect
)
